<!-- Created with Inkscape (http://www.inkscape.org/) -->
<svg xmlns:rdf="http://www.w3.org/1999/02/22-rdf-syntax-ns#" xmlns="http://www.w3.org/2000/svg" height="256" width="256" version="1.1" xmlns:cc="http://creativecommons.org/ns#" xmlns:dc="http://purl.org/dc/elements/1.1/">
 <metadata>
  <rdf:RDF>
   <cc:Work rdf:about="">
    <dc:format>image/svg+xml</dc:format>
    <dc:type rdf:resource="http://purl.org/dc/dcmitype/StillImage"/>
    <dc:title/>
   </cc:Work>
  </rdf:RDF>
 </metadata>
 <g transform="translate(0,-796.3622)">
  <text style="letter-spacing:0px;word-spacing:0px;" font-weight="normal" xml:space="preserve" font-size="24px" font-stretch="normal" line-height="125%" font-variant="normal" y="903.30945" x="45.107422" font-family="Sans" font-style="normal" fill="#0081c5"><tspan y="903.30945" x="45.107422">missing map</tspan><tspan y="933.30945" x="45.107422">long press for</tspan><tspan y="963.30945" x="45.107422">download</tspan></text>
 </g>
</svg>
